[gd_resource type="Environment" format=2]

[resource]
background_mode = 1
background_energy = 0.68
ambient_light_color = Color( 0.996078, 0.984314, 0.984314, 1 )
ambient_light_energy = 0.0
ambient_light_sky_contribution = 0.0
fog_color = Color( 0, 0, 0, 1 )
fog_height_min = 1.0
tonemap_mode = 2
tonemap_exposure = 0.1
ss_reflections_enabled = true
ssao_enabled = true
ssao_radius = 0.1
glow_enabled = true
glow_intensity = 4.71
glow_strength = 0.97
glow_hdr_threshold = 0.2
glow_bicubic_upscale = true
