[gd_scene load_steps=3 format=2]

[ext_resource path="res://models/Tablet Holder/tablet_holder.glb" type="PackedScene" id=1]

[sub_resource type="SpatialMaterial" id=1]
params_cull_mode = 2

[node name="tablet_holder" instance=ExtResource( 1 )]

[node name="Plane" parent="." index="0"]
material/0 = SubResource( 1 )
